,No Imagery,,,
MODIS,Terra - Corrected Reflectance (True Color),250m|MODIS_Terra_CorrectedReflectance_TrueColor,jpeg
MODIS,Aqua - Corrected Reflectance (True Color),250m|MODIS_Aqua_CorrectedReflectance_TrueColor,jpeg
MODIS,Terra - Land Surface Reflectance (True Color),500m|MODIS_Terra_SurfaceReflectance_Bands143,jpeg
MODIS,Aqua - Land Surface Reflectance (True Color),500m|MODIS_Aqua_SurfaceReflectance_Bands143,jpeg
MODIS,Terra - Corrected Reflectance (Bands 7-2-1),250m|MODIS_Terra_CorrectedReflectance_Bands721,jpeg
MODIS,Aqua - Corrected Reflectance (Bands 7-2-1),250m|MODIS_Aqua_CorrectedReflectance_Bands721,jpeg
MODIS,Terra - Land Surface Reflectance (Bands 7-2-1),500m|MODIS_Terra_SurfaceReflectance_Bands721,jpeg
MODIS,Aqua - Land Surface Reflectance (Bands 7-2-1),500m|MODIS_Aqua_SurfaceReflectance_Bands721,jpeg
MODIS,Terra - Corrected Reflectance (Bands 3-6-7),250m|MODIS_Terra_CorrectedReflectance_Bands367,jpeg
MODIS,Terra - Land Surface Reflectance (Bands 1-2-1),250m|MODIS_Terra_SurfaceReflectance_Bands121,jpeg
MODIS,Aqua - Land Surface Reflectance (Bands 1-2-1),250m|MODIS_Aqua_SurfaceReflectance_Bands121,jpeg